<svg width="24" height="24" viewBox="0 0 24 24" fill="none" xmlns="http://www.w3.org/2000/svg">
<path d="M12.0358 3.00078C7.11802 3.00078 3.00137 6.75326 3.00137 11.4669C3.00137 13.1057 3.49922 14.7342 4.40822 16.0839L3.0391 19.3165C2.86609 19.7249 3.29841 20.1249 3.7245 19.9639L7.14731 18.6708C8.57634 19.5293 10.3007 19.9995 12.0358 19.9995C17.0322 19.9995 21 16.1065 21 11.467C21 6.78769 16.9907 3.00078 12.0358 3.00078Z" stroke="white" stroke-width="2"/>
</svg>
